Observations – Colby Forecasting
…
5 Observations

Next is to read in the observations you have already downloaded for that species.

obs = read_obis(SPECIES)
obs

Simple feature collection with 9663 features and 7 fields
Geometry type: POINT
Dimension:     XY
Bounding box:  xmin: -74.70772 ymin: 38.8 xmax: -65.00391 ymax: 45.1333
Geodetic CRS:  WGS 84
# A tibble: 9,663 × 8
   id             basisOfRecord eventDate   year month eventTime individualCount
 * <chr>          <chr>         <date>     <dbl> <chr> <chr>               <dbl>
 1 00026c58-b8a1… HumanObserva… 1980-06-06  1980 Jun   10:10:00                1
 2 0002d1eb-d5ab… HumanObserva… 2016-06-28  2016 Jun   13:45:41                1
 3 00079e04-1682… HumanObserva… 2016-08-03  2016 Aug   15:58:00                1
 4 00086bc0-d5f9… HumanObserva… 2017-11-28  2017 Nov   13:28:26                1
 5 000936b8-54f4… HumanObserva… 2004-06-23  2004 Jun   16:27:57Z               7
 6 001796b0-be4e… HumanObserva… 2017-05-04  2017 May   13:47:59                1
 7 0018582d-ff61… HumanObserva… 2007-08-22  2007 Aug   16:01:42                1
 8 001d4e09-7398… HumanObserva… 2005-07-23  2005 Jul   <NA>                    1
 9 0022f0d8-fa8a… HumanObserva… 1980-05-23  1980 May   09:35:00                1
10 00262ef4-6d80… HumanObserva… 2015-06-27  2015 Jun   14:01:19Z               1
# ℹ 9,653 more rows
# ℹ 1 more variable: geom <POINT [°]>
…
Maybe with proper with squinting we can see some that fall into no-data areas. The sure-fire way to tell is to extract the mask values at the point locations.

hitOrMiss = extract_brickman(mask, obs)
hitOrMiss

# A tibble: 9,340 × 3
   point name  value
   <chr> <chr> <dbl>
 1 p0001 mask      1
 2 p0002 mask      1
 3 p0003 mask      1
 4 p0004 mask      1
 5 p0005 mask      1
 6 p0006 mask      1
 7 p0007 mask      1
 8 p0008 mask      1
 9 p0009 mask      1
10 p0010 mask      1
# ℹ 9,330 more rows
…
